main.c:63:6:GPIOx_bit_toggle	16	static
main.c:75:6:Task_init	16	static
main.c:176:6:HAL_TIM_PeriodElapsedCallback	16	static
main.c:221:6:HAL_UART_RxCpltCallback	16	static
main.c:234:6:HAL_ADC_ConvCpltCallback	32	static
main.c:247:6:HAL_GPIO_EXTI_Callback	16	static
main.c:262:6:check_Time	32	static
main.c:280:6:check_TaskActive	32	static
main.c:328:6:check_Mottor_Toggle	24	static
main.c:349:6:Con2And_send	24	static
main.c:375:5:main	384	static
main.c:2169:6:SystemClock_Config	96	static
main.c:2214:13:MX_ADC1_Init	48	static
main.c:2277:13:MX_ADC2_Init	56	static
main.c:2345:13:MX_TIM6_Init	24	static
main.c:2383:13:MX_USART2_UART_Init	8	static
main.c:2418:13:MX_GPIO_Init	48	static
main.c:2493:6:Error_Handler	4	static,ignoring_inline_asm
