UART_function.c:3:6:USARTx_TX_Char	16	static
UART_function.c:14:6:USARTx_TX_Cir	24	static
UART_function.c:26:6:USARTx_TX	16	static
UART_function.c:35:6:USARTx_TX_Str	16	static
UART_function.c:46:10:USARTx_RX_CheckData	16	static
UART_function.c:61:6:USARTx_TX_IntNumber	16	static
UART_function.c:68:6:USARTx_TX_FloatNumber	16	static
